appdirs==1.4.3
beautifulsoup4==4.6.0
bs4==0.0.1
dateutils==0.6.6
Django==1.11.1
et-xmlfile==1.0.1
jdcal==1.3
lxml==3.7.3
packaging==16.8
pyparsing==2.2.0
python-dateutil==2.6.0
pytz==2017.2
requests==2.14.2
six==1.10.0
xlrd==1.0.0
xlwt==1.2.0
